<?xml version="1.0" encoding="UTF-8" standalone="no"?>
<!-- Created with Inkscape (http://www.inkscape.org/) -->

<svg
   xmlns:dc="http://purl.org/dc/elements/1.1/"
   xmlns:cc="http://creativecommons.org/ns#"
   xmlns:rdf="http://www.w3.org/1999/02/22-rdf-syntax-ns#"
   xmlns:svg="http://www.w3.org/2000/svg"
   xmlns="http://www.w3.org/2000/svg"
   xmlns:sodipodi="http://sodipodi.sourceforge.net/DTD/sodipodi-0.dtd"
   xmlns:inkscape="http://www.inkscape.org/namespaces/inkscape"
   width="16px"
   height="16px"
   viewBox="0 0 16 16"
   version="1.1"
   id="SVGRoot"
   inkscape:version="0.92.4 5da689c313, 2019-01-14"
   sodipodi:docname="org.prevete.Daty.svg">
  <defs
     id="defs815" />
  <sodipodi:namedview
     id="base"
     pagecolor="#ffffff"
     bordercolor="#666666"
     borderopacity="1.0"
     inkscape:pageopacity="0.0"
     inkscape:pageshadow="2"
     inkscape:zoom="32"
     inkscape:cx="5.828931"
     inkscape:cy="8.1875112"
     inkscape:document-units="px"
     inkscape:current-layer="layer1"
     showgrid="false"
     inkscape:window-width="1366"
     inkscape:window-height="741"
     inkscape:window-x="0"
     inkscape:window-y="27"
     inkscape:window-maximized="1"
     inkscape:grid-bbox="true" />
  <metadata
     id="metadata818">
    <rdf:RDF>
      <cc:Work
         rdf:about="">
        <dc:format>image/svg+xml</dc:format>
        <dc:type
           rdf:resource="http://purl.org/dc/dcmitype/StillImage" />
        <dc:title></dc:title>
      </cc:Work>
    </rdf:RDF>
  </metadata>
  <g
     inkscape:label="Livello 1"
     inkscape:groupmode="layer"
     id="layer1">
    <path
       d="M 1.603558,14.393615 H 2.068125 V 1.532142 H 1.603558 Z m 0.9601491,0 h 1.42462 V 1.532142 h -1.42462 z M 4.4529924,1.532142 V 14.393155 H 5.8776102 V 1.532142 Z"
       style="fill:#e01b24;fill-opacity:1;stroke-width:0.02024349"
       id="path1920"
       inkscape:connector-curvature="0" />
    <path
       d="m 13.066222,14.39453 h 0.464662 V 1.532142 H 13.066222 Z M 14.026469,1.532142 V 14.39453 h 0.464567 V 1.532142 Z m -7.6688323,12.86239 h 0.464567 V 1.532142 H 6.3576367 Z M 7.317884,1.532142 v 12.86193 H 7.7825467 V 1.532142 Z"
       style="fill:#33d17a;fill-opacity:1;stroke-width:0.02024349"
       id="path1922"
       inkscape:connector-curvature="0" />
    <path
       d="M 8.2623817,14.394532 H 9.6871938 V 1.532142 H 8.2623817 Z m 1.8892833,0 h 0.495486 V 1.532142 h -0.495486 z m 0.960149,-12.86239 v 12.86193 h 1.42462 V 1.532142 Z"
       style="fill:#3584e4;fill-opacity:1;stroke-width:0.02024349"
       id="path1924"
       inkscape:connector-curvature="0" />
  </g>
</svg>
